%YAML 1.1
%TAG !u! tag:unity3d.com,2011:
--- !u!1045 &1
EditorBuildSettings:
  m_ObjectHideFlags: 0
  serializedVersion: 2
  m_Scenes:
  - enabled: 1
    path: Assets/Resources/Scene/MainMenu/MainMenu.unity
    guid: b697a3475741a0d4e8d4ebe1cd7d73f3
  - enabled: 1
    path: Assets/Resources/Scene/Game/HauntedHouse.unity
    guid: 08e986d688e0e0e4c91ba0313b328730
  - enabled: 1
    path: Assets/Resources/Scene/Game/SpookyRoom.unity
    guid: 6b5746328704f314e9f59eec7491a57e
